﻿--------------------
Presskit Template
--------------------

--------------------
Images Required
--------------------
240x420
64x64
480x660 (or 960x1320) 
480x270 (pewn)
1024x768
950x150
480x270 (or anyting in 16:9 ratio 1920x1080, 1600x900, 1280x720, 600x338, 480x270, 300x169)
315x250
588x331 (scale up from other 16:9 ratio)

--------------------
Required Videos
--------------------
Timelapse Creation
Trailer/Teaser
Gameplay
Let's Play

--------------------
Info & Text Required
--------------------

--------------------
Name: 


--------------------
Download Link : 


--------------------
Short Description / TagLine / Chapter:  (EN)


--------------------
Long Description: (EN)


--------------------
Short Description / TagLine / Chapter:  (DE)


--------------------
Long Description: (DE)


--------------------
Release Date:

--------------------
ReleaseMonth:


--------------------
Additional Links:


--------------------
Authors:


--------------------
Authors Twitter:


--------------------
Platforms:

Windows, Mac, Linux, 
Flash, Web, Mobile, DOS, Uzebox,
iPhone, iPad, Android, AndroidTab

--------------------
Engine:


--------------------
Style:


--------------------
Theme:


--------------------
Type:

Singleplayer, Multiplayer

--------------------
Projekttyp:

Spiel, Engine, Tutorial, 

